\relax 
\@writefile{toc}{\contentsline {section}{\numberline {1}Some assembly required}{3}}
\@writefile{lol}{\contentsline {lstlisting}{\numberline {1}Provided shell.c}{3}}
\@writefile{toc}{\contentsline {section}{\numberline {2}The shell game}{3}}
\@writefile{toc}{\contentsline {subsection}{\numberline {2.1}Obtaining the shellcode}{3}}
\@writefile{toc}{\contentsline {subsection}{\numberline {2.2}First Code Injection}{4}}
\@writefile{lol}{\contentsline {lstlisting}{\numberline {2}victim.c, with added print to get the address of the buffer}{5}}
\@writefile{toc}{\contentsline {subsection}{\numberline {2.3}Attack}{6}}
\@writefile{toc}{\contentsline {section}{\numberline {3}The Importance of Being Patched}{6}}
\@writefile{toc}{\contentsline {subsection}{\numberline {3.1}Problems Begin}{6}}
\@writefile{toc}{\contentsline {subsection}{\numberline {3.2}And Now, We Begin}{7}}
\@writefile{toc}{\contentsline {section}{\numberline {4}Go go gadget, last-section-of-the-report}{8}}
\@writefile{toc}{\contentsline {subsection}{\numberline {4.1}Episode IV: A False Hope}{9}}
\@writefile{toc}{\contentsline {subsection}{\numberline {4.2}Oh.}{10}}
\@writefile{lol}{\contentsline {lstlisting}{\numberline {3}"New Payload"}{10}}
