\contentsline {section}{\numberline {1}Some assembly required}{3}
\contentsline {section}{\numberline {2}The shell game}{3}
\contentsline {subsection}{\numberline {2.1}Obtaining the shellcode}{3}
\contentsline {subsection}{\numberline {2.2}First Code Injection}{4}
\contentsline {subsection}{\numberline {2.3}Attack}{6}
\contentsline {section}{\numberline {3}The Importance of Being Patched}{6}
\contentsline {subsection}{\numberline {3.1}Problems Begin}{6}
\contentsline {subsection}{\numberline {3.2}And Now, We Begin}{7}
\contentsline {section}{\numberline {4}Go go gadget, last-section-of-the-report}{8}
\contentsline {subsection}{\numberline {4.1}Episode IV: A False Hope}{9}
\contentsline {subsection}{\numberline {4.2}Oh.}{10}
